BTD Event Analysis
…
## NULL

purestocksBTD <- calcReturn(purestocks, BTDdate, daysFromBTD, window = 120)
returns <- returnsTable(purestocksBTD, daysFromBTD)

## # A tibble: 21 x 9
## # Groups:   UID [?]
##    UID               pre       n start   end     min    mean     max     sd
##    <chr>             <fct> <int> <dbl> <dbl>   <dbl>   <dbl>   <dbl>  <dbl>
##  1 Achaogen Zemdri  pre      83  -120    -4 -0.108   0.291   0.559  0.161 
##  2 Achaogen Zemdri  post     81     3   120 -0.0819  0.166   0.437  0.144 
##  3 Adaptimmune NY-E pre      81  -120    -4 -0.0685  0.253   0.729  0.194 
##  4 Adaptimmune NY-E post     81     3   120 -0.0527  0.181   0.465  0.131 
##  5 Aimmune AR101 20 post     51    49   120 -0.325  -0.0720  0.0809 0.101 
##  6 Capricor Therape pre      81  -119    -3 -0.453  -0.258   0.0300 0.134 
##  7 Capricor Therape post     81     3   120 -0.521  -0.431  -0.236  0.0845
##  8 CytoDyn PRO140 2 pre      81  -120    -3 -0.205  -0.112   0.0256 0.0447
##  9 CytoDyn PRO140 2 post     82     4   119 -0.359  -0.154   0.0256 0.0963
## 10 Global Blood The pre      82  -120    -4 -0.0489  0.299   0.656  0.183 
## # ... with 11 more rows
…
